[gd_scene load_steps=8 format=2]

[ext_resource path="res://Assets/Slime Sprite Sheet.png" type="Texture" id=1]
[ext_resource path="res://Scripts/Enemy.gd" type="Script" id=2]

[sub_resource type="RectangleShape2D" id=1]
extents = Vector2( 17.1418, 18.4601 )

[sub_resource type="RectangleShape2D" id=2]
extents = Vector2( 14.4467, 14.1216 )

[sub_resource type="Animation" id=3]
resource_name = "die"
length = 0.5
tracks/0/type = "value"
tracks/0/path = NodePath("Sprite:frame")
tracks/0/interp = 1
tracks/0/loop_wrap = true
tracks/0/imported = false
tracks/0/enabled = true
tracks/0/keys = {
"times": PoolRealArray( 0, 0.1, 0.2, 0.3, 0.4, 0.5 ),
"transitions": PoolRealArray( 1, 1, 1, 1, 1, 1 ),
"update": 1,
"values": [ 33, 34, 35, 36, 37, 38 ]
}
tracks/1/type = "method"
tracks/1/path = NodePath(".")
tracks/1/interp = 1
tracks/1/loop_wrap = true
tracks/1/imported = false
tracks/1/enabled = true
tracks/1/keys = {
"times": PoolRealArray( 0.5 ),
"transitions": PoolRealArray( 1 ),
"values": [ {
"args": [  ],
"method": "die"
} ]
}

[sub_resource type="Animation" id=4]
resource_name = "idle"

[sub_resource type="Animation" id=5]
length = 0.8
loop = true
tracks/0/type = "value"
tracks/0/path = NodePath("Sprite:frame")
tracks/0/interp = 1
tracks/0/loop_wrap = true
tracks/0/imported = false
tracks/0/enabled = true
tracks/0/keys = {
"times": PoolRealArray( 0, 0.1, 0.2, 0.3, 0.4, 0.5, 0.6, 0.7, 0.8 ),
"transitions": PoolRealArray( 1, 1, 1, 1, 1, 1, 1, 1, 1 ),
"update": 0,
"values": [ 8, 9, 10, 11, 12, 13, 14, 15, 16 ]
}

[node name="Enemy" type="KinematicBody2D"]
script = ExtResource( 2 )

[node name="EnemyHitbox" type="Area2D" parent="."]

[node name="CollisionShape2D" type="CollisionShape2D" parent="EnemyHitbox"]
position = Vector2( -1.05946, -5.29732 )
shape = SubResource( 1 )

[node name="Sprite" type="Sprite" parent="."]
position = Vector2( -0.488788, -51.1125 )
scale = Vector2( 2.951, 4.03561 )
texture = ExtResource( 1 )
vframes = 5
hframes = 8
frame = 33

[node name="CollisionShape2D" type="CollisionShape2D" parent="."]
position = Vector2( -0.943878, -2.88945 )
shape = SubResource( 2 )

[node name="Animator" type="AnimationPlayer" parent="."]
anims/die = SubResource( 3 )
anims/idle = SubResource( 4 )
anims/walk = SubResource( 5 )

[node name="VisibilityEnabler2D" type="VisibilityEnabler2D" parent="."]
process_parent = true
physics_process_parent = true
[connection signal="area_entered" from="EnemyHitbox" to="." method="_on_Hitbox_area_entered"]
