[gd_scene load_steps=5 format=2]

[ext_resource path="res://Assets/Fonts/Raw/CC Wild Words Roman.ttf" type="DynamicFontData" id=1]
[ext_resource path="res://Scripts/New Game.gd" type="Script" id=2]
[ext_resource path="res://Assets/Fonts/Button.tres" type="DynamicFont" id=3]

[sub_resource type="DynamicFont" id=1]
size = 70
font_data = ExtResource( 1 )

[node name="ColorRect" type="ColorRect"]
anchor_right = 1.0
anchor_bottom = 1.0
color = Color( 0.12549, 0.32549, 0.458824, 1 )
__meta__ = {
"_edit_use_anchors_": false
}

[node name="Label" type="Label" parent="."]
margin_left = 2.0
margin_top = 2.0
margin_right = 1019.0
margin_bottom = 319.0
size_flags_horizontal = 3
size_flags_vertical = 6
custom_fonts/font = SubResource( 1 )
text = "How to play"
align = 1
valign = 1
autowrap = true
uppercase = true
__meta__ = {
"_edit_use_anchors_": false
}

[node name="Label2" type="Label" parent="."]
margin_left = 238.756
margin_top = 230.051
margin_right = 775.756
margin_bottom = 453.051
custom_fonts/font = ExtResource( 3 )
text = "Up : Jump
Lef : Left
Right : Right
D : Attack"
align = 1
valign = 1
autowrap = true
uppercase = true
__meta__ = {
"_edit_use_anchors_": false
}

[node name="LinkButton" type="LinkButton" parent="."]
margin_left = 447.396
margin_top = 485.151
margin_right = 577.396
margin_bottom = 511.151
custom_fonts/font = ExtResource( 3 )
text = "Lets Go"
script = ExtResource( 2 )
scene_to_load = "Level 1"
[connection signal="pressed" from="LinkButton" to="LinkButton" method="_on_LinkButton_pressed"]
